{
  "name": "13-Orchestrator",
  "description": "Blank Process",
  "main": "Main.xaml",
  "dependencies": {
    "UiPath.Excel.Activities": "[2.8.4-preview]",
    "UiPath.Mail.Activities": "[1.8.4-preview]",
    "UiPath.System.Activities": "[20.4.0]",
    "UiPath.UIAutomation.Activities": "[20.4.1-preview]"
  },
  "webServices": [],
  "schemaVersion": "4.0",
  "studioVersion": "20.4.0.0",
  "projectVersion": "1.0.2",
  "runtimeOptions": {
    "autoDispose": false,
    "isPausable": true,
    "requiresUserInteraction": true,
    "supportsPersistence": false,
    "excludedLoggedData": [
      "Private:*",
      "*password*"
    ],
    "executionType": "Workflow"
  },
  "designOptions": {
    "projectProfile": "Developement",
    "outputType": "Process",
    "libraryOptions": {
      "includeOriginalXaml": false,
      "privateWorkflows": []
    },
    "fileInfoCollection": []
  },
  "arguments": {
    "input": [
      {
        "name": "in_Message",
        "type": "System.String, mscorlib, Version=4.0.0.0, Culture=neutral, PublicKeyToken=b77a5c561934e089",
        "required": false,
        "hasDefault": false
      }
    ],
    "output": []
  },
  "expressionLanguage": "VisualBasic"
}